 '  '  `  `  '  '  ,  ,  '  '  ~  ~  '  '  ,  ,    '  '  !  !  '  '  ,  ,    '  '  @  @  '  '  ,  ,    '  '  #  #  '  '  ,  ,    '  '  $  $  '  '  ,  ,    '  '  %  %  '  '  ,  ,    '  '  ^  ^  '  '  ,  ,    '  '  &  &  '  '  ,  ,    '  '  *  *  '  '  ,  ,    '  '  (  (  '  '  ,  ,    '  '  )  )  '  '  ,  ,    '  '  _  _  '  '  ,  ,   

 '  '  -  -  '  '  ,  ,    '  '  .  .  '  '  ,  ,    '  '  ,  ,  '  '  ,  ,  '  '  /  /  '  '  ,  ,  '  '  \  \  \  \  '  '  ,  ,  '  '  \  \  '  '  '  '  ,  ,  '  '  "  "  '  '  ,  ,  '  '  ;  ;  '  '  ,  ,  '  '  }  }  '  '  ,  ,  '  '  ]  ]  '  '  ,  ,  '  '  {  {  '  '  ,  ,  '  '  [  [  '  '  ,  ,  '  '  |  |  '  '  ,  ,  '  '  ?  ?  '  '  ,  ,  '  '  >  >  '  '  ,  ,  '  '  <  <  '  '   

   ,  ,  '  '  +  +  '  '  ,  ,  '  '  =  =  '  '  ,  ,  '  '  :  :  '  '  ,  ,  '  '  “  “  '  '  ,  ,    '  '  „  „  '  '   Jan je můj kamarád .   je to jen janča .   klokani a malí klokani jsou hodní . 1234567890  %  %  /  /  !  !  "  "  _  _  :  :  :  :  _  _   ××   "  "   LPO  %  %   0987654321  `  `   1465767ščřžýáíé  =  =   áíýěš  +  +   řžžáíýéš  =  =  )  )   

  úěp  +  +   ěščřžýáíé  =  =   43567890  -  -  ~  ~  !  !  @  @  #  #  $  $  %  %  ^  ^  &  &  *  *  (  (  )  )  _  _  {  {  :  :   L  >  >   O  (  (  )  )  }  } 

